{
  "title": "Kontakt",
  "body": "Klima- und Energiemodell Region/Stadt Krems\\\nChristian Braun\\\n[www.krems-energieautark.at](http://www.krems-energieautark.at)\n\nGEDESAG\\\nProk. Ing. Wolfgang Steinschaden\\\n[www.gedesag.at](http://www.gedesag.at)\n\nGreen4Cities GmbH\\\nFlorian Kraus, BSc\\\n[www.green4cities.com](http://www.green4cities.com)\n\nDonau Universität Krems\\\nDr.in DIin Christine Rottenbacher\\\n[www.donau-uni.ac.at](http://www.donau-uni.ac.at)\n\nEnergy Changes Projektentwicklung GmbH\\\nMag. Gottfried Heneis\\\n[www.energy-changes.com](http://www.energy-changes.com)\n\nKlima- und Energiemodell Region/Stadt Krems\\\nChristian Braun\\\n[www.krems-energieautark.at](http://www.krems-energieautark.at)"
}